[
  {
    "id": "5f3df268-c679-4ccc-ad93-d364e04fce9c",
    "nombres": "Dereck",
    "apellidos": "Osinski",
    "cursos": {
      "materia_1": "Research",
      "materia_2": "Programming"
    }
  },
  {
    "id": "aba693d0-fc25-4785-a3f1-ab2cc050d212",
    "nombres": "Christina",
    "apellidos": "Stamm",
    "cursos": { "materia_1": "Assurance" }
  },
  {
    "id": "d7bf5f2e-8cbb-4ed0-8da6-2a6ec38cd650",
    "nombres": "Andy",
    "apellidos": "Abernathy",
    "cursos": { "materia_1": "Integration" }
  }
]
